[
    {
        "_id": "user123",
        "firstName": "John",
        "lastName": "Doe",
        "email": "johndoe$mail.com",
        "password": "user123",
        "isAdmin": false,
        "mobileNUmber": "09151841234",
        "dateTimeRegistered": "2022-08-15-1811PM"
    },
    {
        "_id": "user456",
        "firstName": "Jane",
        "lastName": "Doe",
        "email": "janedoe$mail.com",
        "password": "user123",
        "isAdmin": false,
        "mobileNUmber": "09151841546",
        "dateTimeRegistered": "2022-08-15-1811PM"
    }
]