[
    {
        "customer_id": 1,
        "firstName": "Ken",
        "lastName": "Roy",
        "email": "kenroy@mail.com",
        "password": "kenpassword1234",
        "isAdmin": false,
        "mobileNumber": "09994123698"
    },
    {
        "customer_id": 2,
        "firstName": "Lois",
        "lastName": "Long",
        "email": "longloisy@mail.com",
        "password": "loispassword1234",
        "isAdmin": false,
        "mobileNumber": "092178569841"
    },
    {
        "customer_id": 3,
        "firstName": "Leah",
        "lastName": "Chandler",
        "email": "lchandler@mail.com",
        "password": "chandpassword1234",
        "isAdmin": false,
        "mobileNumber": "09761258796"
    }
]